\relax 
\@writefile{toc}{\contentsline {section}{\numberline {3}Physics Runs}{10}}
\@writefile{toc}{\contentsline {subsection}{\numberline {3.1}What to do at the start of a physics run?}{10}}
\newlabel{sect:what2dophys}{{3.1}{10}}
\@writefile{toc}{\contentsline {subsection}{\numberline {3.2}Monitoring of physics run}{11}}
\@setckpt{PhysicsRun/PhysicsRun}{
\setcounter{page}{12}
\setcounter{equation}{0}
\setcounter{enumi}{2}
\setcounter{enumii}{0}
\setcounter{enumiii}{0}
\setcounter{enumiv}{0}
\setcounter{footnote}{0}
\setcounter{mpfootnote}{0}
\setcounter{part}{0}
\setcounter{section}{3}
\setcounter{subsection}{2}
\setcounter{subsubsection}{0}
\setcounter{paragraph}{0}
\setcounter{subparagraph}{0}
\setcounter{figure}{0}
\setcounter{table}{1}
\setcounter{r@tfl@t}{0}
\setcounter{float@type}{4}
}
