\relax 
\@writefile{toc}{\contentsline {subsubsection}{\numberline {5.4.12}CaloGlobal}{50}}
\newlabel{sect:histCaloGlobal}{{5.4.12}{50}}
\@writefile{toc}{\contentsline {paragraph}{Hit map of cells with E/$E_{cluster}>$0.9}{50}}
\@writefile{toc}{\contentsline {paragraph}{Average number of cells in clusters}{50}}
\@writefile{toc}{\contentsline {paragraph}{Avg energy of cluster with Energy $>$ 0.0 GeV }{50}}
\@writefile{toc}{\contentsline {paragraph}{Hit Map of Cluster with Energy $>$ 0.0 GeV }{51}}
\@writefile{toc}{\contentsline {paragraph}{Eta Energy $>$ 0.0 GeV}{51}}
\@writefile{toc}{\contentsline {paragraph}{Phi Energy $>$ 0.0 GeV}{51}}
\@writefile{toc}{\contentsline {paragraph}{Tower Occupancy vs $\eta $ and $\phi $ with E $>$ 0.0 GeV}{52}}
\@writefile{toc}{\contentsline {paragraph}{Energy in Most Energetic Tower}{52}}
\@writefile{toc}{\contentsline {paragraph}{EtaPhi of Most Energetic Tower}{52}}
\@writefile{toc}{\contentsline {paragraph}{Tower Occupancy Vs Phi with E $>$ 0.0GeV }{53}}
\@writefile{toc}{\contentsline {paragraph}{Tower Occupancy vs Vs Eta with E $>$ 0.0 GeV}{53}}
\@setckpt{Monitoring/CaloGlobal}{
\setcounter{page}{54}
\setcounter{equation}{0}
\setcounter{enumi}{5}
\setcounter{enumii}{0}
\setcounter{enumiii}{0}
\setcounter{enumiv}{0}
\setcounter{footnote}{0}
\setcounter{mpfootnote}{0}
\setcounter{part}{0}
\setcounter{section}{5}
\setcounter{subsection}{4}
\setcounter{subsubsection}{12}
\setcounter{paragraph}{0}
\setcounter{subparagraph}{0}
\setcounter{figure}{12}
\setcounter{table}{4}
\setcounter{r@tfl@t}{0}
\setcounter{float@type}{4}
}
