\relax 
\@writefile{toc}{\contentsline {subsubsection}{\numberline {5.4.3}Data Integrity DSP}{33}}
\newlabel{histDataIntegrityDSP}{{5.4.3}{33}}
\@writefile{toc}{\contentsline {paragraph}{Number of errors per partition and per gain}{33}}
\@writefile{toc}{\contentsline {paragraph}{E(DSP) - E(offline) distribution}{33}}
\@writefile{toc}{\contentsline {paragraph}{T(DSP) - T(offline) distribution}{33}}
\@writefile{toc}{\contentsline {paragraph}{Q(DSP) - Q(offline) distribution}{34}}
\@writefile{toc}{\contentsline {paragraph}{Errors number per FEB}{34}}
\@writefile{toc}{\contentsline {paragraph}{Correlation between E(DSP) and E(offline)[respectively T and Q]}{34}}
\@setckpt{Monitoring/DataIntegrityDSP}{
\setcounter{page}{35}
\setcounter{equation}{0}
\setcounter{enumi}{5}
\setcounter{enumii}{0}
\setcounter{enumiii}{0}
\setcounter{enumiv}{0}
\setcounter{footnote}{0}
\setcounter{mpfootnote}{0}
\setcounter{part}{0}
\setcounter{section}{5}
\setcounter{subsection}{4}
\setcounter{subsubsection}{3}
\setcounter{paragraph}{0}
\setcounter{subparagraph}{0}
\setcounter{figure}{12}
\setcounter{table}{3}
\setcounter{r@tfl@t}{0}
\setcounter{float@type}{4}
}
