\relax 
\@writefile{toc}{\contentsline {subsubsection}{\numberline {5.4.4}Data Integrity FEB}{35}}
\newlabel{histDataIntegrityFEB}{{5.4.4}{35}}
\@writefile{toc}{\contentsline {paragraph}{Offline Rejection Yield}{35}}
\@writefile{toc}{\contentsline {paragraph}{Number of Readout FEBs}{35}}
\@writefile{toc}{\contentsline {paragraph}{Number Of LArFEBMon Errors}{35}}
\@writefile{toc}{\contentsline {paragraph}{Number of Events DSP header}{36}}
\@writefile{lot}{\contentsline {table}{\numberline {4}{\ignorespaces FEB FT, Slot mapping from {Online Identifier Mapping}{http://lpsc.in2p3.fr/atlas/lucotte/3.SOFTWARE/software\_online.html}. See also the LArIdTranslator.}}{36}}
\newlabel{tab:FEBFTSlotMapping}{{4}{36}}
\@writefile{toc}{\contentsline {paragraph}{Average Number of cells above DSP thresholds}{37}}
\@setckpt{Monitoring/DataIntegrityFEB}{
\setcounter{page}{38}
\setcounter{equation}{0}
\setcounter{enumi}{5}
\setcounter{enumii}{0}
\setcounter{enumiii}{0}
\setcounter{enumiv}{0}
\setcounter{footnote}{0}
\setcounter{mpfootnote}{0}
\setcounter{part}{0}
\setcounter{section}{5}
\setcounter{subsection}{4}
\setcounter{subsubsection}{4}
\setcounter{paragraph}{0}
\setcounter{subparagraph}{0}
\setcounter{figure}{12}
\setcounter{table}{4}
\setcounter{r@tfl@t}{0}
\setcounter{float@type}{4}
}
