\relax 
\@writefile{toc}{\contentsline {subsubsection}{\numberline {5.4.5}High Energy Digits}{38}}
\newlabel{histHIGHENERGY}{{5.4.5}{38}}
\@writefile{toc}{\contentsline {paragraph}{Type of run what to look at.}{38}}
\@writefile{toc}{\contentsline {paragraph}{High Energy Digits Summary}{38}}
\@writefile{toc}{\contentsline {paragraph}{Normalized Signal Shape}{39}}
\@writefile{toc}{\contentsline {paragraph}{Energy vs Sample Number}{39}}
\@writefile{toc}{\contentsline {paragraph}{Max Sample vs Time}{39}}
\@writefile{toc}{\contentsline {paragraph}{Average Position Max Digit}{40}}
\@writefile{toc}{\contentsline {paragraph}{Out Of Range}{40}}
\@writefile{toc}{\contentsline {paragraph}{Out of Range at Channel level}{40}}
\@writefile{toc}{\contentsline {paragraph}{Null Digit}{41}}
\@writefile{toc}{\contentsline {paragraph}{Null Digit at Channel level}{41}}
\@writefile{toc}{\contentsline {paragraph}{Saturation}{41}}
\@writefile{toc}{\contentsline {paragraph}{Saturation at Channel level}{42}}
\@writefile{toc}{\contentsline {paragraph}{Max Sample per Stream}{42}}
\@writefile{toc}{\contentsline {paragraph}{Trigger Word}{42}}
\@setckpt{Monitoring/HighEnergyDigits}{
\setcounter{page}{43}
\setcounter{equation}{0}
\setcounter{enumi}{5}
\setcounter{enumii}{0}
\setcounter{enumiii}{0}
\setcounter{enumiv}{0}
\setcounter{footnote}{0}
\setcounter{mpfootnote}{0}
\setcounter{part}{0}
\setcounter{section}{5}
\setcounter{subsection}{4}
\setcounter{subsubsection}{5}
\setcounter{paragraph}{0}
\setcounter{subparagraph}{0}
\setcounter{figure}{12}
\setcounter{table}{4}
\setcounter{r@tfl@t}{0}
\setcounter{float@type}{4}
}
