\relax 
\@writefile{toc}{\contentsline {subsubsection}{\numberline {5.4.11}MisBehaving Channels RawChannels}{49}}
\newlabel{histMisBehavingRaw}{{5.4.11}{49}}
\@writefile{toc}{\contentsline {paragraph}{Mean Energy (MeV)}{49}}
\@writefile{toc}{\contentsline {paragraph}{Percentage of events above 3 sigma}{49}}
\@setckpt{Monitoring/MisBehavingChannelsRaw}{
\setcounter{page}{50}
\setcounter{equation}{0}
\setcounter{enumi}{5}
\setcounter{enumii}{0}
\setcounter{enumiii}{0}
\setcounter{enumiv}{0}
\setcounter{footnote}{0}
\setcounter{mpfootnote}{0}
\setcounter{part}{0}
\setcounter{section}{5}
\setcounter{subsection}{4}
\setcounter{subsubsection}{11}
\setcounter{paragraph}{0}
\setcounter{subparagraph}{0}
\setcounter{figure}{12}
\setcounter{table}{4}
\setcounter{r@tfl@t}{0}
\setcounter{float@type}{4}
}
