\relax 
\@writefile{toc}{\contentsline {subsubsection}{\numberline {5.4.10}MisBehaving Channels CaloCells}{47}}
\newlabel{histMisBehavingCalo}{{5.4.10}{47}}
\@writefile{toc}{\contentsline {paragraph}{Cell Energy/Noise(DB) - {\it  $<$sampling$>$}}{47}}
\@writefile{toc}{\contentsline {paragraph}{Average Cell Energy vs ($\eta $,$\phi $) for {\it  $<$sampling$>$} - no Threshold, rndm trigger}{47}}
\@writefile{toc}{\contentsline {paragraph}{Cell Energy}{47}}
\@writefile{toc}{\contentsline {paragraph}{Percentage of events in ($\eta $,$\phi $) for {\it  $<$sampling$>$} $E_{cell} >5 \sigma $}{48}}
\@setckpt{Monitoring/MisBehavingChannelsCalo}{
\setcounter{page}{49}
\setcounter{equation}{0}
\setcounter{enumi}{5}
\setcounter{enumii}{0}
\setcounter{enumiii}{0}
\setcounter{enumiv}{0}
\setcounter{footnote}{0}
\setcounter{mpfootnote}{0}
\setcounter{part}{0}
\setcounter{section}{5}
\setcounter{subsection}{4}
\setcounter{subsubsection}{10}
\setcounter{paragraph}{0}
\setcounter{subparagraph}{0}
\setcounter{figure}{12}
\setcounter{table}{4}
\setcounter{r@tfl@t}{0}
\setcounter{float@type}{4}
}
