\relax 
\@writefile{toc}{\contentsline {subsubsection}{\numberline {5.4.9}MisBehaving Channels Digits}{46}}
\newlabel{histMisBehavingDigits}{{5.4.9}{46}}
\@writefile{toc}{\contentsline {paragraph}{Time of bursty events}{46}}
\@setckpt{Monitoring/MisBehavingChannelsDigits}{
\setcounter{page}{47}
\setcounter{equation}{0}
\setcounter{enumi}{5}
\setcounter{enumii}{0}
\setcounter{enumiii}{0}
\setcounter{enumiv}{0}
\setcounter{footnote}{0}
\setcounter{mpfootnote}{0}
\setcounter{part}{0}
\setcounter{section}{5}
\setcounter{subsection}{4}
\setcounter{subsubsection}{9}
\setcounter{paragraph}{0}
\setcounter{subparagraph}{0}
\setcounter{figure}{12}
\setcounter{table}{4}
\setcounter{r@tfl@t}{0}
\setcounter{float@type}{4}
}
