\relax 
\@writefile{toc}{\contentsline {section}{\numberline {5}Monitoring and Data Quality}{27}}
\newlabel{sect:monitoring}{{5}{27}}
\@writefile{toc}{\contentsline {subsection}{\numberline {5.1}Monitoring Displays}{27}}
\@writefile{toc}{\contentsline {subsubsection}{\numberline {5.1.1}DQMD}{27}}
\@writefile{toc}{\contentsline {subsubsection}{\numberline {5.1.2}OHP}{27}}
\@writefile{toc}{\contentsline {subsubsection}{\numberline {5.1.3}Trigger Presenter}{27}}
\@writefile{toc}{\contentsline {subsubsection}{\numberline {5.1.4}Atlantis}{27}}
\@writefile{toc}{\contentsline {subsubsection}{\numberline {5.1.5}Other monitoring tools at P1}{27}}
\@writefile{toc}{\contentsline {subsection}{\numberline {5.2}Where to find the monitoring data?}{27}}
\newlabel{sect:mon_wheredata}{{5.2}{27}}
\@writefile{toc}{\contentsline {subsubsection}{\numberline {5.2.1}Setting up ROOT}{27}}
\newlabel{sect:mon_useroot}{{5.2.1}{27}}
\@writefile{toc}{\contentsline {subsubsection}{\numberline {5.2.2}Online Calibration ROOT Files}{27}}
\@writefile{toc}{\contentsline {subsubsection}{\numberline {5.2.3}Online Physics ROOT Files}{27}}
\@writefile{toc}{\contentsline {subsubsection}{\numberline {5.2.4}Offline Physics ROOT files}{28}}
\@writefile{toc}{\contentsline {subsubsection}{\numberline {5.2.5}Using the event dump}{28}}
\newlabel{sec:DaqDuring:eventDump}{{5.2.5}{28}}
\@writefile{toc}{\contentsline {subsection}{\numberline {5.3}Data Quality Checklists}{28}}
\newlabel{sect:mon_checklists}{{5.3}{28}}
\@writefile{toc}{\contentsline {subsubsection}{\numberline {5.3.1}Online - Calibration Runs}{28}}
\newlabel{sec:CalibValid}{{5.3.1}{28}}
\@writefile{toc}{\contentsline {subsubsection}{\numberline {5.3.2}Online - Physics Runs}{28}}
\newlabel{sec:PhysicsValidOnline}{{5.3.2}{28}}
\@setckpt{Monitoring/Monitoring}{
\setcounter{page}{29}
\setcounter{equation}{0}
\setcounter{enumi}{5}
\setcounter{enumii}{0}
\setcounter{enumiii}{0}
\setcounter{enumiv}{0}
\setcounter{footnote}{0}
\setcounter{mpfootnote}{0}
\setcounter{part}{0}
\setcounter{section}{5}
\setcounter{subsection}{3}
\setcounter{subsubsection}{2}
\setcounter{paragraph}{0}
\setcounter{subparagraph}{0}
\setcounter{figure}{12}
\setcounter{table}{3}
\setcounter{r@tfl@t}{0}
\setcounter{float@type}{4}
}
