\relax 
\@writefile{toc}{\contentsline {subsubsection}{\numberline {5.4.6}Timing}{43}}
\newlabel{histTiming}{{5.4.6}{43}}
\@writefile{toc}{\contentsline {paragraph}{Difference in time between C and A sides}{43}}
\@writefile{toc}{\contentsline {paragraph}{Difference in time between C and A sides vs Lumiblock number}{43}}
\@writefile{toc}{\contentsline {subsubsection}{\numberline {5.4.7}Energy Flow}{43}}
\newlabel{sect:histEnergyFlow}{{5.4.7}{43}}
\@writefile{toc}{\contentsline {paragraph}{Total Cell Energy vs ($\eta $,$\phi $) for {\it  $<$sampling$>$} - no Threshold, rndm trigger}{43}}
\@setckpt{Monitoring/Physics}{
\setcounter{page}{44}
\setcounter{equation}{0}
\setcounter{enumi}{5}
\setcounter{enumii}{0}
\setcounter{enumiii}{0}
\setcounter{enumiv}{0}
\setcounter{footnote}{0}
\setcounter{mpfootnote}{0}
\setcounter{part}{0}
\setcounter{section}{5}
\setcounter{subsection}{4}
\setcounter{subsubsection}{7}
\setcounter{paragraph}{0}
\setcounter{subparagraph}{0}
\setcounter{figure}{12}
\setcounter{table}{4}
\setcounter{r@tfl@t}{0}
\setcounter{float@type}{4}
}
