\relax 
\@writefile{toc}{\contentsline {subsection}{\numberline {5.4}Monitoring plots description}{29}}
\newlabel{sect:monitoringplots}{{5.4}{29}}
\@setckpt{Monitoring/PlotsDescription}{
\setcounter{page}{30}
\setcounter{equation}{0}
\setcounter{enumi}{5}
\setcounter{enumii}{0}
\setcounter{enumiii}{0}
\setcounter{enumiv}{0}
\setcounter{footnote}{0}
\setcounter{mpfootnote}{0}
\setcounter{part}{0}
\setcounter{section}{5}
\setcounter{subsection}{4}
\setcounter{subsubsection}{0}
\setcounter{paragraph}{0}
\setcounter{subparagraph}{0}
\setcounter{figure}{12}
\setcounter{table}{3}
\setcounter{r@tfl@t}{0}
\setcounter{float@type}{4}
}
