\relax 
\@writefile{toc}{\contentsline {subsubsection}{\numberline {5.4.8}Quality Factor}{44}}
\newlabel{sect:histQualityFactor}{{5.4.8}{44}}
\@writefile{toc}{\contentsline {paragraph}{Number of noisy FEB}{44}}
\@writefile{toc}{\contentsline {paragraph}{Percentage of events with FEB noisy (was: Noisy FEB fraction) }{44}}
\@setckpt{Monitoring/QualityFactor}{
\setcounter{page}{46}
\setcounter{equation}{0}
\setcounter{enumi}{5}
\setcounter{enumii}{0}
\setcounter{enumiii}{0}
\setcounter{enumiv}{0}
\setcounter{footnote}{0}
\setcounter{mpfootnote}{0}
\setcounter{part}{0}
\setcounter{section}{5}
\setcounter{subsection}{4}
\setcounter{subsubsection}{8}
\setcounter{paragraph}{0}
\setcounter{subparagraph}{0}
\setcounter{figure}{12}
\setcounter{table}{4}
\setcounter{r@tfl@t}{0}
\setcounter{float@type}{4}
}
