\relax 
\@writefile{toc}{\contentsline {subsubsection}{\numberline {5.4.1}Run Parameters}{30}}
\newlabel{histRunInfo}{{5.4.1}{30}}
\@writefile{toc}{\contentsline {paragraph}{Event Type}{30}}
\@writefile{toc}{\contentsline {paragraph}{Number of Samples}{30}}
\@writefile{toc}{\contentsline {paragraph}{Nb Of Events per Minute}{30}}
\@writefile{toc}{\contentsline {paragraph}{Nb Of Rejected Events per Minute}{30}}
\@writefile{toc}{\contentsline {paragraph}{ADC Threshold in DSP }{31}}
\@writefile{toc}{\contentsline {paragraph}{DSP Threshold - Qfactor+time}{31}}
\@writefile{toc}{\contentsline {paragraph}{Number of Events per L1 trigger bit}{31}}
\@writefile{toc}{\contentsline {paragraph}{Number of readout FEBs}{31}}
\@writefile{toc}{\contentsline {paragraph}{Number of events per Stream}{32}}
\@writefile{toc}{\contentsline {paragraph}{Raw Stream correlation}{32}}
\@writefile{toc}{\contentsline {subsubsection}{\numberline {5.4.2}Detector Coverage}{32}}
\@writefile{toc}{\contentsline {paragraph}{Coverage - Sampling - Partition}{32}}
\@setckpt{Monitoring/RunInfo}{
\setcounter{page}{33}
\setcounter{equation}{0}
\setcounter{enumi}{5}
\setcounter{enumii}{0}
\setcounter{enumiii}{0}
\setcounter{enumiv}{0}
\setcounter{footnote}{0}
\setcounter{mpfootnote}{0}
\setcounter{part}{0}
\setcounter{section}{5}
\setcounter{subsection}{4}
\setcounter{subsubsection}{2}
\setcounter{paragraph}{0}
\setcounter{subparagraph}{0}
\setcounter{figure}{12}
\setcounter{table}{3}
\setcounter{r@tfl@t}{0}
\setcounter{float@type}{4}
}
