\relax 
\@writefile{toc}{\contentsline {section}{\numberline {2}Calibrations Runs}{8}}
\newlabel{sec:calib}{{2}{8}}
\@writefile{toc}{\contentsline {subsection}{\numberline {2.1}Taking Calibration Runs}{8}}
\newlabel{sec:take_calib}{{2.1}{8}}
\@writefile{lot}{\contentsline {table}{\numberline {1}{\ignorespaces List of available partitions. LArgBarrel is used only if the endcaps are unavailable.}}{9}}
\newlabel{tab:partition}{{1}{9}}
\@setckpt{Calib/Calib}{
\setcounter{page}{10}
\setcounter{equation}{0}
\setcounter{enumi}{13}
\setcounter{enumii}{0}
\setcounter{enumiii}{0}
\setcounter{enumiv}{0}
\setcounter{footnote}{0}
\setcounter{mpfootnote}{0}
\setcounter{part}{0}
\setcounter{section}{2}
\setcounter{subsection}{1}
\setcounter{subsubsection}{0}
\setcounter{paragraph}{0}
\setcounter{subparagraph}{0}
\setcounter{figure}{0}
\setcounter{table}{1}
\setcounter{r@tfl@t}{0}
\setcounter{float@type}{4}
}
