\relax 
\@writefile{toc}{\contentsline {section}{\numberline {1}Getting Started}{4}}
\newlabel{sec:Intro}{{1}{4}}
\@writefile{toc}{\contentsline {subsection}{\numberline {1.1}Before you arrive for shifts}{4}}
\@writefile{toc}{\contentsline {subsection}{\numberline {1.2}When you first arrive for shift}{4}}
\@writefile{toc}{\contentsline {subsection}{\numberline {1.3}During the shift}{5}}
\@writefile{toc}{\contentsline {subsection}{\numberline {1.4}End of shift}{7}}
\@setckpt{Intro/Intro}{
\setcounter{page}{8}
\setcounter{equation}{0}
\setcounter{enumi}{5}
\setcounter{enumii}{0}
\setcounter{enumiii}{0}
\setcounter{enumiv}{0}
\setcounter{footnote}{0}
\setcounter{mpfootnote}{0}
\setcounter{part}{0}
\setcounter{section}{1}
\setcounter{subsection}{4}
\setcounter{subsubsection}{0}
\setcounter{paragraph}{0}
\setcounter{subparagraph}{0}
\setcounter{figure}{0}
\setcounter{table}{0}
\setcounter{r@tfl@t}{0}
\setcounter{float@type}{4}
}
