\relax 
\@writefile{toc}{\contentsline {section}{\numberline {4}Environment}{12}}
\newlabel{sect:config}{{4}{12}}
\@writefile{toc}{\contentsline {subsection}{\numberline {4.1}The DAQ panel}{12}}
\newlabel{sect:DaqPanel}{{4.1}{12}}
\@writefile{lof}{\contentsline {figure}{\numberline {1}{\ignorespaces The DAQ panel (the {\it  Main} panel)}}{12}}
\newlabel{fig:daqPanelMain}{{1}{12}}
\@writefile{toc}{\contentsline {subsection}{\numberline {4.2}Opening the Monitoring Advanced Panel}{13}}
\newlabel{subsubs:ohpConfig}{{4.2}{13}}
\@writefile{toc}{\contentsline {subsection}{\numberline {4.3}Basic functionalities of the DAQ GUI}{13}}
\newlabel{subs:basicFunc}{{4.3}{13}}
\@writefile{lof}{\contentsline {figure}{\numberline {2}{\ignorespaces The DAQ panel for (the {\it  Monitoring} panel)}}{13}}
\newlabel{fig:daqPanelMonit}{{2}{13}}
\@writefile{toc}{\contentsline {subsubsection}{\numberline {4.3.1}LAr H/W control parameters}{14}}
\newlabel{app:LArOnlineParam}{{4.3.1}{14}}
\@writefile{lof}{\contentsline {figure}{\numberline {3}{\ignorespaces The DAQ GUI.}}{14}}
\newlabel{fig:basicFac}{{3}{14}}
\@writefile{toc}{\contentsline {subsubsection}{\numberline {4.3.2}Complex deadtime and the Central Trigger Processor}{15}}
\@writefile{lof}{\contentsline {figure}{\numberline {4}{\ignorespaces the {\it  HW Control} panel.}}{15}}
\newlabel{fig:hwcontrol}{{4}{15}}
\@writefile{lot}{\contentsline {table}{\numberline {2}{\ignorespaces Determination of data format provided by the LAr H/W control parameters Run type and Format.}}{16}}
\newlabel{tab:dataFormat}{{2}{16}}
\@writefile{toc}{\contentsline {subsubsection}{\numberline {4.3.3}Segment and Resource}{16}}
\@writefile{toc}{\contentsline {subsubsection}{\numberline {4.3.4}LAr Crates}{16}}
\@writefile{toc}{\contentsline {subsubsection}{\numberline {4.3.5}The Run parameters}{17}}
\@writefile{toc}{\contentsline {subsection}{\numberline {4.4}Description of different processes involved}{17}}
\newlabel{subs:diffProcess}{{4.4}{17}}
\@writefile{lof}{\contentsline {figure}{\numberline {5}{\ignorespaces the {\it  Segment and resource} panel. Surrounded are the segments associated to the ROD crates.}}{17}}
\newlabel{fig:segmentROD}{{5}{17}}
\@writefile{lof}{\contentsline {figure}{\numberline {6}{\ignorespaces the {\it  LAr Crates} panel.}}{18}}
\newlabel{fig:larcrates}{{6}{18}}
\@writefile{lot}{\contentsline {table}{\numberline {3}{\ignorespaces Description of different processes involved in DAQ - [PART] is a partition (EMBA, EMBC, EMECA, EMECC...) - [N] is an integer }}{19}}
\newlabel{tab:pmg}{{3}{19}}
\@writefile{lof}{\contentsline {figure}{\numberline {7}{\ignorespaces the {\it  Run Control} panel. The circled button is the one to remove a PMG from the DAQ.}}{20}}
\newlabel{fig:pmg_OUT}{{7}{20}}
\@setckpt{Daq/Daq}{
\setcounter{page}{21}
\setcounter{equation}{0}
\setcounter{enumi}{2}
\setcounter{enumii}{0}
\setcounter{enumiii}{0}
\setcounter{enumiv}{0}
\setcounter{footnote}{0}
\setcounter{mpfootnote}{0}
\setcounter{part}{0}
\setcounter{section}{4}
\setcounter{subsection}{4}
\setcounter{subsubsection}{0}
\setcounter{paragraph}{0}
\setcounter{subparagraph}{0}
\setcounter{figure}{7}
\setcounter{table}{3}
\setcounter{r@tfl@t}{0}
\setcounter{float@type}{4}
}
