\relax 
\@writefile{toc}{\contentsline {subsection}{\numberline {4.5}DCS - Detector Control and Safety}{21}}
\newlabel{sec:DCS}{{4.5}{21}}
\@writefile{lof}{\contentsline {figure}{\numberline {8}{\ignorespaces DCS FSM screen for LAr.}}{21}}
\newlabel{fig:DCS-LAr}{{8}{21}}
\@writefile{toc}{\contentsline {subsubsection}{\numberline {4.5.1}Check the LVPS Status}{21}}
\newlabel{subs:DCS_LVPS}{{4.5.1}{21}}
\@writefile{toc}{\contentsline {subsubsection}{\numberline {4.5.2}Check the ROD Crate Status}{22}}
\@writefile{lof}{\contentsline {figure}{\numberline {9}{\ignorespaces Compact view of DCS for a half barrel. From inner circle to outer one, are displayed : ROD crates, Front End Crates (FECs), cooling loops, High Voltage (HV) for Power Supplies, High Voltage.}}{22}}
\newlabel{fig:DCS-LAr-compact}{{9}{22}}
\@writefile{toc}{\contentsline {subsubsection}{\numberline {4.5.3}Check HV Status}{23}}
\@writefile{lof}{\contentsline {figure}{\numberline {10}{\ignorespaces DCS FSM screen for the LAr low voltage power supplies (LVPS).}}{23}}
\newlabel{fig:DCS-LAr-LVPS}{{10}{23}}
\@writefile{toc}{\contentsline {subsubsection}{\numberline {4.5.4}Check the DCS Alarms Screen}{24}}
\@writefile{lof}{\contentsline {figure}{\numberline {11}{\ignorespaces DCS FSM screen for the LAr ROD crates in USA15.}}{24}}
\newlabel{fig:DCS-LAr-ROD}{{11}{24}}
\@writefile{lof}{\contentsline {figure}{\numberline {12}{\ignorespaces DCS FSM screen for the barrel HV.}}{25}}
\newlabel{fig:DCS-LAr-HV}{{12}{25}}
\@setckpt{Daq/DCS}{
\setcounter{page}{26}
\setcounter{equation}{0}
\setcounter{enumi}{5}
\setcounter{enumii}{0}
\setcounter{enumiii}{0}
\setcounter{enumiv}{0}
\setcounter{footnote}{0}
\setcounter{mpfootnote}{0}
\setcounter{part}{0}
\setcounter{section}{4}
\setcounter{subsection}{5}
\setcounter{subsubsection}{4}
\setcounter{paragraph}{0}
\setcounter{subparagraph}{0}
\setcounter{figure}{12}
\setcounter{table}{3}
\setcounter{r@tfl@t}{0}
\setcounter{float@type}{4}
}
