\relax 
\@writefile{toc}{\contentsline {subsection}{\numberline {4.6}Using the ATLAS e-log (Elisa)}{26}}
\newlabel{sec:elog}{{4.6}{26}}
\@writefile{toc}{\contentsline {subsubsection}{\numberline {4.6.1}Access and use of Elog}{26}}
\@writefile{toc}{\contentsline {subsubsection}{\numberline {4.6.2}Information to put in the Elog}{26}}
\newlabel{subs:Elog_temp}{{4.6.2}{26}}
\@setckpt{Daq/Elog}{
\setcounter{page}{27}
\setcounter{equation}{0}
\setcounter{enumi}{5}
\setcounter{enumii}{0}
\setcounter{enumiii}{0}
\setcounter{enumiv}{0}
\setcounter{footnote}{0}
\setcounter{mpfootnote}{0}
\setcounter{part}{0}
\setcounter{section}{4}
\setcounter{subsection}{6}
\setcounter{subsubsection}{2}
\setcounter{paragraph}{0}
\setcounter{subparagraph}{0}
\setcounter{figure}{12}
\setcounter{table}{3}
\setcounter{r@tfl@t}{0}
\setcounter{float@type}{4}
}
