\relax 
\@writefile{toc}{\contentsline {section}{\numberline {A}Tips to work at P1}{54}}
\@writefile{toc}{\contentsline {subsection}{\numberline {A.1}Access rights}{54}}
\@writefile{toc}{\contentsline {subsection}{\numberline {A.2}Network}{54}}
\newlabel{app:P1_Net}{{A.2}{54}}
\@writefile{toc}{\contentsline {subsection}{\numberline {A.3}logout at P1}{54}}
\@writefile{toc}{\contentsline {subsection}{\numberline {A.4}Printers}{54}}
\@writefile{toc}{\contentsline {subsection}{\numberline {A.5}Phone numbers}{55}}
\@writefile{toc}{\contentsline {subsection}{\numberline {A.6}Updating this document and checklists}{55}}
\@writefile{toc}{\contentsline {subsection}{\numberline {A.7}Creating graphics (screenshots) at P1}{56}}
\@setckpt{Appendix/Appendix_P1}{
\setcounter{page}{57}
\setcounter{equation}{0}
\setcounter{enumi}{7}
\setcounter{enumii}{0}
\setcounter{enumiii}{0}
\setcounter{enumiv}{0}
\setcounter{footnote}{0}
\setcounter{mpfootnote}{0}
\setcounter{part}{0}
\setcounter{section}{1}
\setcounter{subsection}{7}
\setcounter{subsubsection}{0}
\setcounter{paragraph}{0}
\setcounter{subparagraph}{0}
\setcounter{figure}{12}
\setcounter{table}{4}
\setcounter{r@tfl@t}{0}
\setcounter{float@type}{4}
}
